Preparing your data for use with eyetrackingR • eyetrackingR
…
Trackloss occurs when the eye-tracker loses track of the
participant’s eyes (e.g., when they turn away or blink) or when it
captures their gaze location but with very low validity.

We need to decide which trials to remove (if any) due to very high
trackloss. To do so here, we will:

Calculate the amount of trackloss in each trial

Remove trials with over 25% trackloss

# analyze amount of trackloss by subjects and trials
(trackloss <- trackloss_analysis(data = response_window))

## # A tibble: 155 × 6
##    ParticipantName Trial          Samples TracklossSamples TracklossForTrial
##    <fct>           <fct>            <dbl>            <dbl>             <dbl>
##  1 ANCAT139        FamiliarBottle     330              161            0.488 
##  2 ANCAT18         FamiliarBird       330               74            0.224 
##  3 ANCAT18         FamiliarBottle     330               43            0.130 
##  4 ANCAT18         FamiliarCow        330              159            0.482 
##  5 ANCAT18         FamiliarDog        330               95            0.288 
##  6 ANCAT18         FamiliarHorse      330              165            0.5   
##  7 ANCAT18         FamiliarSpoon      330               95            0.288 
##  8 ANCAT22         FamiliarBird       330               14            0.0424
##  9 ANCAT22         FamiliarBottle     330                8            0.0242
## 10 ANCAT22         FamiliarDog        330               55            0.167 
## # ℹ 145 more rows
## # ℹ 1 more variable: TracklossForParticipant <dbl>
…
How much data are we left with?

After data cleaning, it’s important to assess how much data you are
ultimately left with to (a) report along with your findings and, (b)
identify any problematic participants who didn’t contribute enough
trials from which to reliably estimate their performance.

Assess mean trackloss for each participant

trackloss_clean <- trackloss_analysis(data = response_window_clean)

(trackloss_clean_subjects <- unique(trackloss_clean[, c('ParticipantName','TracklossForParticipant')]))

## # A tibble: 27 × 2
##    ParticipantName TracklossForParticipant
##    <fct>                             <dbl>
##  1 ANCAT18                          0.177 
##  2 ANCAT22                          0.0588
##  3 ANCAT23                          0.0626
##  4 ANCAT26                          0.0970
##  5 ANCAT39                          0.0379
##  6 ANCAT45                          0.0131
##  7 ANCAT50                          0.0576
##  8 ANCAT53                          0.0485
##  9 ANCAT55                          0.0430
## 10 ANCAT58                          0.0261
## # ℹ 17 more rows
…
# get mean samples contributed per trials, with SD
mean(1 - trackloss_clean_subjects$TracklossForParticipant)

## [1] 0.9313075

sd(1- trackloss_clean_subjects$TracklossForParticipant)

## [1] 0.05208985

Assess number of trials contributed by each participant

# look at the NumTrials column
(final_summary <- describe_data(response_window_clean, describe_column = 'Animate', group_columns = 'ParticipantName'))

## # A tibble: 27 × 9
##    ParticipantName  Mean    SD LowerQ UpperQ   Min   Max     N NumTrials
##    <fct>           <dbl> <dbl>  <dbl>  <dbl> <int> <int> <int>     <int>
##  1 ANCAT18         0.169 0.375      0      1     0     1   660         2
##  2 ANCAT22         0.581 0.494      0      1     0     1  1650         5
##  3 ANCAT23         0.780 0.414      0      1     0     1  1980         6
##  4 ANCAT26         0.598 0.490      0      1     0     1  1320         4
##  5 ANCAT39         0.650 0.477      0      1     0     1  1980         6
##  6 ANCAT45         0.679 0.467      0      1     0     1   990         3
##  7 ANCAT50         0.836 0.370      0      1     0     1   990         3
##  8 ANCAT53         0.737 0.441      0      1     0     1   990         3
##  9 ANCAT55         0.745 0.436      0      1     0     1  1650         5
## 10 ANCAT58         0.731 0.443      0      1     0     1  1650         5
## # ℹ 17 more rows
…
