Performing a window analysis using eyetrackingR • eyetrackingR
…
Sanity checks

Here, we’ll inspect the descriptive statistics for our data, and make some initial visualizations just to make sure everything is in order. We basically want a glance at each subject’s looking to the Animate for each condition. To do so, we’ll:

use the describe_data function to generate a quick data summary (telling us the means and variance within each Target condition for each subject, and the number of trials contributed after cleaning above), and

quickly visualize these differences by plotting a line for each subject. We expect they should all slope in the same direction, with lower mean looking to the Animate when the Inanimate was named than when the Animate was named.

(data_summary <- describe_data(response_window_clean, 
                               describe_column='Animate', group_columns=c('Target','ParticipantName')))

## # A tibble: 54 × 10
##    Target  ParticipantName  Mean    SD LowerQ UpperQ   Min   Max     N NumTrials
##    <fct>   <fct>           <dbl> <dbl>  <dbl>  <dbl> <int> <int> <int>     <int>
##  1 Animate ANCAT18         0.359 0.481      0      1     0     1   330         1
##  2 Animate ANCAT22         0.791 0.407      0      1     0     1   990         3
##  3 Animate ANCAT23         0.815 0.388      0      1     0     1  1320         4
##  4 Animate ANCAT26         0.699 0.459      0      1     0     1   660         2
##  5 Animate ANCAT39         0.880 0.325      0      1     0     1  1320         4
##  6 Animate ANCAT45         0.715 0.452      0      1     0     1   660         2
##  7 Animate ANCAT50         0.896 0.306      0      1     0     1   660         2
##  8 Animate ANCAT53         0.727 0.446      0      1     0     1   660         2
##  9 Animate ANCAT55         0.955 0.208      0      1     0     1   990         3
## 10 Animate ANCAT58         0.855 0.352      0      1     0     1  1320         4
## # … with 44 more rows
…
